…
We also need some sequences to search. The sample data is from a soil
metabarcoding study focused on fungi. The targetted region includes 5.8S
as well as some of the surrounding rDNA regions.

``` r
sampfasta <- system.file(file.path("extdata", "sample.fasta"), package = "inferrnal")
```

Use `cmsearch()` to locate the 5.8S RNA in each sequence.

``` r
library(inferrnal)
cmsearch(cm = cm5_8S, seq = sampfasta, cpu = 1)
#> # A tibble: 438 x 18
#>    target_name target_accession query_name query_accession mdl   mdl_from mdl_to
#>    <chr>       <chr>            <chr>      <chr>           <chr>    <int>  <int>
#>  1 seq61       -                5_8S_rRNA  RF00002         cm           1    154
#>  2 seq45       -                5_8S_rRNA  RF00002         cm           1    154
#>  3 seq175      -                5_8S_rRNA  RF00002         cm           1    154
#>  4 seq3        -                5_8S_rRNA  RF00002         cm           1    154
#>  5 seq92       -                5_8S_rRNA  RF00002         cm           1    154
#>  6 seq2        -                5_8S_rRNA  RF00002         cm           1    154
#>  7 seq28       -                5_8S_rRNA  RF00002         cm           1    154
#>  8 seq63       -                5_8S_rRNA  RF00002         cm           1    154
#>  9 seq83       -                5_8S_rRNA  RF00002         cm           1    154
#> 10 seq154      -                5_8S_rRNA  RF00002         cm           1    154
#> # … with 428 more rows, and 11 more variables: seq_from <int>, seq_to <int>,
#> #   strand <chr>, trunc <chr>, pass <int>, gc <dbl>, bias <dbl>, score <dbl>,
#> #   E_value <dbl>, inc <chr>, description <chr>
```

Instead of passing a file name, you can also supply a `DNAStringSet` or
`RNAStringSet` object from the `Biostrings` package.

``` r
sampseqs <- Biostrings::readDNAStringSet(sampfasta)
cmsearch(cm = cm5_8S, seq = sampseqs, cpu = 1)
#> # A tibble: 438 x 18
#>    target_name target_accession query_name query_accession mdl   mdl_from mdl_to
#>    <chr>       <chr>            <chr>      <chr>           <chr>    <int>  <int>
#>  1 seq61       -                5_8S_rRNA  RF00002         cm           1    154
#>  2 seq45       -                5_8S_rRNA  RF00002         cm           1    154
#>  3 seq175      -                5_8S_rRNA  RF00002         cm           1    154
#>  4 seq3        -                5_8S_rRNA  RF00002         cm           1    154
#>  5 seq92       -                5_8S_rRNA  RF00002         cm           1    154
#>  6 seq2        -                5_8S_rRNA  RF00002         cm           1    154
#>  7 seq28       -                5_8S_rRNA  RF00002         cm           1    154
#>  8 seq63       -                5_8S_rRNA  RF00002         cm           1    154
#>  9 seq83       -                5_8S_rRNA  RF00002         cm           1    154
#> 10 seq154      -                5_8S_rRNA  RF00002         cm           1    154
#> # … with 428 more rows, and 11 more variables: seq_from <int>, seq_to <int>,
#> #   strand <chr>, trunc <chr>, pass <int>, gc <dbl>, bias <dbl>, score <dbl>,
#> #   E_value <dbl>, inc <chr>, description <chr>
```

`cmsearch`, by default, returns a table with information about each hit.
However, it can optionally also output an alignment of the hits in
Stockholm format.

``` r
alnfile <- tempfile("alignment-", fileext = ".stk")
cmsearch(cm = cm5_8S, seq = sampseqs, alignment = alnfile)
#> # A tibble: 438 x 18
#>    target_name target_accession query_name query_accession mdl   mdl_from mdl_to
#>    <chr>       <chr>            <chr>      <chr>           <chr>    <int>  <int>
#>  1 seq61       -                5_8S_rRNA  RF00002         cm           1    154
#>  2 seq45       -                5_8S_rRNA  RF00002         cm           1    154
#>  3 seq175      -                5_8S_rRNA  RF00002         cm           1    154
#>  4 seq3        -                5_8S_rRNA  RF00002         cm           1    154
#>  5 seq92       -                5_8S_rRNA  RF00002         cm           1    154
#>  6 seq2        -                5_8S_rRNA  RF00002         cm           1    154
#>  7 seq28       -                5_8S_rRNA  RF00002         cm           1    154
#>  8 seq63       -                5_8S_rRNA  RF00002         cm           1    154
#>  9 seq83       -                5_8S_rRNA  RF00002         cm           1    154
#> 10 seq154      -                5_8S_rRNA  RF00002         cm           1    154
#> # … with 428 more rows, and 11 more variables: seq_from <int>, seq_to <int>,
#> #   strand <chr>, trunc <chr>, pass <int>, gc <dbl>, bias <dbl>, score <dbl>,
#> #   E_value <dbl>, inc <chr>, description <chr>
```
…
